<robot xmlns:xacro="http://www.ros.org/wiki/xacro" name="valkyrie">

    <!-- Create Pelvis -->
    <xacro:make_pelvis />
    <xacro:v1_pelvis_sensors_usb middle_sensor_node_tag="${pelvis_middle_imu_node}" middle_sensor_api_tag="${ImuSensorSimApi}" middle_sensor_port_tag="${pelvis_middle_imu_port}" rear_sensor_node_tag="${pelvis_rear_imu_node}" rear_sensor_api_tag="${ImuSensorSimApi}" rear_sensor_port_tag="${pelvis_rear_imu_port}"/>

    <!-- Create Waist -->
    <xacro:make_waist waist_root_link="${Pelvis_Link_Name}" />
    <xacro:waist_transmissions_sim />
    <xacro:v1_trunk_sensors_usb sensor_node_tag="${torso_left_imu_node}" sensor_api_tag="${ImuSensorSimApi}" sensor_port_tag="${torso_left_imu_port}"/>

    <!-- Create Head -->
    <xacro:if value="$(arg use_head)">
        <xacro:make_head head_root_link="torso" />
        <xacro:include_zedm_sim />
        <xacro:include_multisense_sim />
        <xacro:include_rgbd_sim />
        <xacro:neck_transmissions_sim />
    </xacro:if>

    <!-- Create Right Leg -->
    <xacro:if value="$(arg use_right_leg)">
        <xacro:make_leg prefix="right" reflect="-1" leg_root_link="${Pelvis_Link_Name}"/>
        <xacro:v1_leg_sensors prefix="right" reflect="-1" ATI_serial_number="${sim_ATI_serial}" ATI_node="${right_foot_ATI_node}"/>
        <xacro:leg_transmissions_sim prefix="right"/>
    </xacro:if>

    <!-- Create Left Leg -->
    <xacro:if value="$(arg use_left_leg)">
        <xacro:make_leg prefix="left" reflect="1" leg_root_link="${Pelvis_Link_Name}"/>
        <xacro:v1_leg_sensors prefix="left" reflect="1" ATI_serial_number="${sim_ATI_serial}" ATI_node="${left_foot_ATI_node}"/>
        <xacro:leg_transmissions_sim prefix="left"/>
    </xacro:if>

    <!-- Create Right Arm -->
    <xacro:if value="$(arg use_right_arm)">
        <xacro:make_arm prefix="right" reflect="-1" arm_root_link="torso" />
        <xacro:arm_transmissions_sim prefix="right"/>

        <xacro:make_val_palm prefix="right" reflect="-1" palm_root_link="rightWristPitchFrame"/>
        <xacro:make_thumb prefix="right" reflect="-1" thumb_root_link="rightPalm"/>
        <xacro:make_index_finger prefix="right" reflect="-1" index_finger_root_link="rightPalm"/>
        <xacro:make_middle_finger prefix="right" reflect="-1" middle_finger_root_link="rightPalm"/>
        <xacro:make_pinky_finger prefix="right" reflect="-1" pinky_finger_root_link="rightPalm"/>

        <xacro:thumb_transmissions_sim prefix="right" reflect="1"/>
        <xacro:index_finger_transmissions_sim prefix="right" reflect="1"/>
        <xacro:middle_finger_transmissions_sim prefix="right" reflect="1"/>
        <xacro:pinky_transmissions_sim prefix="right" reflect="1"/>
    </xacro:if>

    <!-- Create Left Arm -->
    <xacro:if value="$(arg use_left_arm)">
        <xacro:make_arm prefix="left" reflect="1" arm_root_link="torso" />
        <xacro:arm_transmissions_sim prefix="left"/>

        <xacro:make_val_palm prefix="left" reflect="1" palm_root_link="leftWristPitchFrame"/>
        <xacro:make_thumb prefix="left" reflect="1" thumb_root_link="leftPalm"/>
        <xacro:make_index_finger prefix="left" reflect="1" index_finger_root_link="leftPalm"/>
        <xacro:make_middle_finger prefix="left" reflect="1" middle_finger_root_link="leftPalm"/>
        <xacro:make_pinky_finger prefix="left" reflect="1" pinky_finger_root_link="leftPalm"/>

        <xacro:thumb_transmissions_sim prefix="left" reflect="-1"/>
        <xacro:index_finger_transmissions_sim prefix="left" reflect="-1"/>
        <xacro:middle_finger_transmissions_sim prefix="left" reflect="-1"/>
        <xacro:pinky_transmissions_sim prefix="left" reflect="-1"/>
    </xacro:if>
    
</robot>
